(export (version D)
  (design
    (source "e:\\Users\\salfter\\Downloads\\reprapdiscount-full-graphic-lcd-controller\\GLCD controller.sch")
    (date "9/5/2018 10:03:45 AM")
    (tool "Eeschema (5.0.0)")
    (sheet (number 1) (name /) (tstamps /)
      (title_block
        (title "GLCD controler-SchDoc")
        (company)
        (rev)
        (date "16 08 2018")
        (source "GLCD controller.sch")
        (comment (number 1) (value ""))
        (comment (number 2) (value ""))
        (comment (number 3) (value ""))
        (comment (number 4) (value "")))))
  (components
    (comp (ref EXP1)
      (value "Header 5X2")
      (footprint Connector_PinHeader_2.54mm:PinHeader_2x05_P2.54mm_Vertical)
      (datasheet https://s3.amazonaws.com/catalogspreads-pdf/PAGE110-111%20.100%20MALE%20HDR%20ST.pdf)
      (fields
        (field (name Description) "CONN HEADER .100\" DUAL STR 10POS")
        (field (name Manufacturer) "Sullins Connector Solutions")
        (field (name "Mfr PN") PRPC005DAAN-RC)
        (field (name "Qty Per Unit") 1)
        (field (name "Subs OK?") y)
        (field (name "Vendor 1 PN") "S2011EC-05-ND	")
        (field (name "Vendor 1 URL") https://www.digikey.com/products/en?keywords=S2011EC-05-ND))
      (libsource (lib Connector_Generic) (part Conn_02x05_Odd_Even) (description "Generic connector, double row, 02x05, odd/even pin numbering scheme (row 1 odd numbers, row 2 even numbers), script generated (kicad-library-utils/schlib/autogen/connector/)"))
      (sheetpath (names /) (tstamps /))
      (tstamp 5B7596AE))
    (comp (ref U2)
      (value MIC5209)
      (footprint Package_TO_SOT_SMD:SOT-223)
      (datasheet http://www.microchip.com/mymicrochip/filehandler.aspx?ddocname=en579634)
      (fields
        (field (name Description) "IC REG LINEAR 3.3V 500MA SOT223")
        (field (name "JEDEC Pkg") SOT-223)
        (field (name Manufacturer) "Microchip Technology")
        (field (name "Mfr PN") MIC5209-3.3YS-TR)
        (field (name "Qty Per Unit") 1)
        (field (name "Subs OK?") y)
        (field (name "Vendor 1 PN") 576-1274-1-ND)
        (field (name "Vendor 1 URL") https://www.digikey.com/products/en?keywords=576-1274-1-ND))
      (libsource (lib "") (part MIC5209) (description ""))
      (sheetpath (names /) (tstamps /))
      (tstamp 5B7596AC))
    (comp (ref C1)
      (value 0.1uF)
      (footprint Capacitor_SMD:C_0805_2012Metric)
      (datasheet http://www.yageo.com/documents/recent/UPY-GPHC_Y5V_6.3V-to-50V_8.pdf)
      (fields
        (field (name Description) "CAP CER 0.1UF 16V Y5V 0805")
        (field (name "JEDEC Pkg") 0805)
        (field (name Manufacturer) Yageo)
        (field (name "Mfr PN") CC0805ZRY5V7BB104)
        (field (name "Qty Per Unit") 1)
        (field (name "Subs OK?") y)
        (field (name "Vendor 1 PN") 311-4354-1-ND)
        (field (name "Vendor 1 URL") https://www.digikey.com/products/en?keywords=311-4354-1-ND))
      (libsource (lib GLCD-controler-SchDoc-rescue) (part Cap_Semi) (description ""))
      (sheetpath (names /) (tstamps /))
      (tstamp 5B7596AB))
    (comp (ref C2)
      (value 0.1uF)
      (footprint Capacitor_SMD:C_0805_2012Metric)
      (datasheet http://www.yageo.com/documents/recent/UPY-GPHC_Y5V_6.3V-to-50V_8.pdf)
      (fields
        (field (name Description) "CAP CER 0.1UF 16V Y5V 0805")
        (field (name "JEDEC Pkg") 0805)
        (field (name Manufacturer) Yageo)
        (field (name "Mfr PN") CC0805ZRY5V7BB104)
        (field (name "Qty Per Unit") 1)
        (field (name "Subs OK?") y)
        (field (name "Vendor 1 PN") 311-4354-1-ND)
        (field (name "Vendor 1 URL") https://www.digikey.com/products/en?keywords=311-4354-1-ND))
      (libsource (lib GLCD-controler-SchDoc-rescue) (part Cap_Semi) (description ""))
      (sheetpath (names /) (tstamps /))
      (tstamp 5B7596AA))
    (comp (ref C3)
      (value 0.1uF)
      (footprint Capacitor_SMD:C_0805_2012Metric)
      (datasheet http://www.yageo.com/documents/recent/UPY-GPHC_Y5V_6.3V-to-50V_8.pdf)
      (fields
        (field (name Description) "CAP CER 0.1UF 16V Y5V 0805")
        (field (name "JEDEC Pkg") 0805)
        (field (name Manufacturer) Yageo)
        (field (name "Mfr PN") CC0805ZRY5V7BB104)
        (field (name "Qty Per Unit") 1)
        (field (name "Subs OK?") y)
        (field (name "Vendor 1 PN") 311-4354-1-ND)
        (field (name "Vendor 1 URL") https://www.digikey.com/products/en?keywords=311-4354-1-ND))
      (libsource (lib GLCD-controler-SchDoc-rescue) (part Cap_Semi) (description ""))
      (sheetpath (names /) (tstamps /))
      (tstamp 5B7596A9))
    (comp (ref C4)
      (value 1uF)
      (footprint Capacitor_SMD:C_0805_2012Metric)
      (datasheet http://www.samsungsem.com/kr/support/product-search/mlcc/CL21F105ZOCNNNC.jsp)
      (fields
        (field (name Description) "CAP CER 1UF 16V Y5V 0805")
        (field (name "JEDEC Pkg") 0805)
        (field (name Manufacturer) "Samsung Electro-Mechanics")
        (field (name "Mfr PN") CL21F105ZOCNNNC)
        (field (name "Qty Per Unit") 1)
        (field (name "Subs OK?") y)
        (field (name "Vendor 1 PN") 1276-1246-1-ND)
        (field (name "Vendor 1 URL") https://www.digikey.com/products/en?keywords=1276-1246-1-ND))
      (libsource (lib GLCD-controler-SchDoc-rescue) (part Cap_Semi) (description ""))
      (sheetpath (names /) (tstamps /))
      (tstamp 5B7596A8))
    (comp (ref PB1)
      (value STOP)
      (footprint Button_Switch_THT:SW_PUSH_6mm)
      (datasheet https://www3.panasonic.biz/ac/e_download/control/switch/light-touch/catalog/sw_lt_eng_5n.pdf)
      (fields
        (field (name Description) "SWITCH TACTILE SPST-NO 0.02A 15V")
        (field (name Manufacturer) "Panasonic Electronic Components")
        (field (name "Mfr PN") EVQ-PAG04M)
        (field (name "Qty Per Unit") 1)
        (field (name "Subs OK?") y)
        (field (name "Vendor 1 PN") P8009S-ND)
        (field (name "Vendor 1 URL") https://www.digikey.com/products/en?keywords=P8009S-ND))
      (libsource (lib Switch) (part SW_Push) (description "Push button switch, generic, two pins"))
      (sheetpath (names /) (tstamps /))
      (tstamp 5B7596A7))
    (comp (ref EN1)
      (value EN11-HSB1AQ20)
      (footprint Rotary_Encoder:RotaryEncoder_Alps_EC11E-Switch_Vertical_H20mm)
      (datasheet http://www.ttelectronics.com/sites/default/files/download-files/Datasheet_RotaryEncoder_EN11Series.pdf)
      (fields
        (field (name Description) "ENCODER 11MM ROTARY SW TOP ADJ")
        (field (name Manufacturer) "TT Electronics/BI")
        (field (name "Mfr PN") EN11-HSB1AQ20)
        (field (name "Qty Per Unit") 1)
        (field (name "Subs OK?") y)
        (field (name "Vendor 1 PN") 987-1187-ND)
        (field (name "Vendor 1 URL") https://www.digikey.com/products/en?keywords=987-1187-ND))
      (libsource (lib Device) (part Rotary_Encoder_Switch) (description "Rotary encoder, dual channel, incremental quadrate outputs, with switch"))
      (sheetpath (names /) (tstamps /))
      (tstamp 5B7596A6))
    (comp (ref GLCD1)
      (value KXM12864M-3)
      (footprint 12864-lcd:KXM12864M-3)
      (fields
        (field (name Description) "SODIAL(R) ST7920 128x64 12864 LCD Display Blue Backlight Parallel Serial Module for Arduino 5V")
        (field (name "Qty Per Unit") 1)
        (field (name "Subs OK?") y)
        (field (name "Vendor 1 PN") B073WBMLWB)
        (field (name "Vendor 1 URL") https://www.amazon.com/gp/product/B073WBMLWB?pf_rd_p=d1f45e03-8b73-4c9a-9beb-4819111bef9a&pf_rd_r=EWAG3W4BYX38GDBGJ7CV))
      (libsource (lib GLCD-controler-SchDoc-rescue) (part LCD_KXM1264M-3) (description ""))
      (sheetpath (names /) (tstamps /))
      (tstamp 5B7596A5))
    (comp (ref Q1)
      (value MMBT2222)
      (footprint Package_TO_SOT_SMD:SOT-23)
      (datasheet http://www.onsemi.com/pub/Collateral/MMBT2222LT1-D.PDF)
      (fields
        (field (name Description) "TRANS NPN 30V 0.6A SOT23")
        (field (name "JEDEC Pkg") SOT-23-3)
        (field (name Manufacturer) "ON Semiconductor")
        (field (name "Mfr PN") MMBT2222LT1G)
        (field (name "Qty Per Unit") 1)
        (field (name "Subs OK?") y)
        (field (name "Vendor 1 PN") MMBT2222LT1GOSCT-ND)
        (field (name "Vendor 1 URL") https://www.digikey.com/products/en?keywords=MMBT2222LT1GOSCT-ND))
      (libsource (lib Device) (part Q_NPN_BEC) (description "Transistor NPN (general)"))
      (sheetpath (names /) (tstamps /))
      (tstamp 5B7596A2))
    (comp (ref R1)
      (value 1K)
      (footprint Resistor_SMD:R_0805_2012Metric)
      (datasheet http://www.yageo.com/documents/recent/PYu-RC_Group_51_RoHS_L_9.pdf)
      (fields
        (field (name Description) "RES SMD 1K OHM 1% 1/8W 0805")
        (field (name "JEDEC Pkg") 0805)
        (field (name Manufacturer) Yageo)
        (field (name "Mfr PN") RC0805FR-071KL)
        (field (name "Qty Per Unit") 1)
        (field (name "Spice Prefix") R)
        (field (name "Subs OK?") y)
        (field (name "Vendor 1 PN") 311-1.00KCRCT-ND)
        (field (name "Vendor 1 URL") https://www.digikey.com/products/en?keywords=311-1.00KCRCT-ND))
      (libsource (lib Device) (part R_US) (description "Resistor US symbol"))
      (sheetpath (names /) (tstamps /))
      (tstamp 5B7596A1))
    (comp (ref RBL1)
      (value 0)
      (footprint Resistor_SMD:R_0805_2012Metric)
      (datasheet https://www2.mouser.com/datasheet/2/427/dcrcwe3-109170.pdf)
      (fields
        (field (name Description) "Thick Film Resistors - SMD 1/8watt ZEROohm Jumper")
        (field (name "JEDEC Pkg") 0805)
        (field (name Manufacturer) Vishay)
        (field (name "Mfr PN") CRCW08050000Z0EA)
        (field (name "Qty Per Unit") 1)
        (field (name "Spice Prefix") R)
        (field (name "Subs OK?") y)
        (field (name "Vendor 1 PN") 71-CRCW0805-0-E3)
        (field (name "Vendor 1 URL") https://www.mouser.com/ProductDetail/Vishay/CRCW08050000Z0EA?qs=sGAEpiMZZMtlubZbdhIBIAPdxL7UgFqoWM4Gq0J8%252bCE=))
      (libsource (lib Device) (part R_US) (description "Resistor US symbol"))
      (sheetpath (names /) (tstamps /))
      (tstamp 5B7596A0))
    (comp (ref SD1)
      (value 2041021-4)
      (footprint 2041021-4:J_SMD_2041021-4-9_2.5_27.90_25_3.3)
      (datasheet http://www.te.com/commerce/DocumentDelivery/DDEController?Action=srchrtrv&DocNm=2041021&DocType=Customer+Drawing&DocLang=English)
      (fields
        (field (name Description) "CONN SD CARD PUSH-PULL R/A SMD	")
        (field (name Manufacturer) "TE Connectivity")
        (field (name "Mfr PN") 2041021-4)
        (field (name "Qty Per Unit") 1)
        (field (name "Subs OK?") y)
        (field (name "Vendor 1 PN") A101492CT-ND)
        (field (name "Vendor 1 URL") https://www.digikey.com/products/en?keywords=A101492CT-ND))
      (libsource (lib 2041021-4) (part 2041021-4) (description ""))
      (sheetpath (names /) (tstamps /))
      (tstamp 5B7646B0))
    (comp (ref PZ1)
      (value CPE-164)
      (footprint CPE-164:CUI_CPE-164)
      (datasheet https://www.cui.com/product/resource/digikeypdf/cpe-164.pdf)
      (fields
        (field (name Description) "AUDIO PIEZO TRANSDUCER 20V TH")
        (field (name Manufacturer) CUI)
        (field (name "Mfr PN") CPE-164)
        (field (name "Qty Per Unit") 1)
        (field (name "Subs OK?") y)
        (field (name "Vendor 1 PN") 102-1612-ND)
        (field (name "Vendor 1 URL") https://www.digikey.com/product-detail/en/cui-inc/CPE-164/102-1612-ND/1738886))
      (libsource (lib CPE-164) (part CPE-164) (description ""))
      (sheetpath (names /) (tstamps /))
      (tstamp 5B77EB3F))
    (comp (ref U1)
      (value 74HC4050)
      (footprint Package_SO:SOIC-16_3.9x9.9mm_P1.27mm)
      (datasheet http://www.ti.com/lit/ds/symlink/cd74hc4049.pdf)
      (fields
        (field (name Description) "IC BUFFER NON-INVERT 6V 16SOIC")
        (field (name "JEDEC Pkg") SOIC-16)
        (field (name Manufacturer) "Texas Instruments")
        (field (name "Mfr PN") CD74HC4050M96)
        (field (name "Qty Per Unit") 1)
        (field (name "Subs OK?") y)
        (field (name "Vendor 1 PN") 296-14529-1-ND)
        (field (name "Vendor 1 URL") https://www.digikey.com/products/en?keywords=296-14529-1-ND))
      (libsource (lib 4xxx) (part 4050) (description "Hex Buffer"))
      (sheetpath (names /) (tstamps /))
      (tstamp 5B780158))
    (comp (ref EXP2)
      (value "Header 5X2")
      (footprint Connector_PinHeader_2.54mm:PinHeader_2x05_P2.54mm_Vertical)
      (datasheet https://s3.amazonaws.com/catalogspreads-pdf/PAGE110-111%20.100%20MALE%20HDR%20ST.pdf)
      (fields
        (field (name Description) "CONN HEADER .100\" DUAL STR 10POS")
        (field (name Manufacturer) "Sullins Connector Solutions")
        (field (name "Mfr PN") PRPC005DAAN-RC)
        (field (name "Qty Per Unit") 1)
        (field (name "Subs OK?") y)
        (field (name "Vendor 1 PN") "S2011EC-05-ND	")
        (field (name "Vendor 1 URL") https://www.digikey.com/products/en?keywords=S2011EC-05-ND))
      (libsource (lib Connector_Generic) (part Conn_02x05_Odd_Even) (description "Generic connector, double row, 02x05, odd/even pin numbering scheme (row 1 odd numbers, row 2 even numbers), script generated (kicad-library-utils/schlib/autogen/connector/)"))
      (sheetpath (names /) (tstamps /))
      (tstamp 5B7A4EA6)))
  (libparts
    (libpart (lib "") (part mic5209:MIC5209)
      (fields
        (field (name Reference) U)
        (field (name Value) mic5209:MIC5209))
      (pins
        (pin (num 1) (name In) (type power_in))
        (pin (num 2) (name Gnd) (type passive))
        (pin (num 3) (name Out) (type power_out))
        (pin (num 4) (name Gnd) (type passive))))
    (libpart (lib 2041021-4) (part 2041021-4)
      (fields
        (field (name Reference) J)
        (field (name Value) 2041021-4)
        (field (name Footprint) J_SMD_2041021-4-9_2.5_27.90_25_3.3)
        (field (name Field4) "Secure Digital Conn,top,Push-Pull,10 Au")
        (field (name Field5) None)
        (field (name Field6) 2041021-4)
        (field (name Field7) "TE Connectivity")
        (field (name Field8) 2041021-4))
      (pins
        (pin (num 1) (name 1) (type passive))
        (pin (num 2) (name 2) (type passive))
        (pin (num 3) (name 3) (type passive))
        (pin (num 4) (name 4) (type passive))
        (pin (num 5) (name 5) (type passive))
        (pin (num 6) (name 6) (type passive))
        (pin (num 7) (name 7) (type passive))
        (pin (num 8) (name 8) (type passive))
        (pin (num 9) (name 9) (type passive))
        (pin (num CARD) (name CARD) (type passive))
        (pin (num G1) (name GND) (type power_in))
        (pin (num G2) (name GND) (type power_in))
        (pin (num G3) (name GND) (type power_in))
        (pin (num G4) (name GND) (type power_in))
        (pin (num WRITE) (name WRITE) (type passive))))
    (libpart (lib 4xxx) (part 4050)
      (description "Hex Buffer")
      (docs http://www.intersil.com/content/dam/intersil/documents/cd40/cd4050bms.pdf)
      (footprints
        (fp DIP?16*))
      (fields
        (field (name Reference) U)
        (field (name Value) 4050))
      (pins
        (pin (num 1) (name VCC) (type power_in))
        (pin (num 2) (name ~) (type output))
        (pin (num 3) (name ~) (type input))
        (pin (num 4) (name ~) (type output))
        (pin (num 5) (name ~) (type input))
        (pin (num 6) (name ~) (type output))
        (pin (num 7) (name ~) (type input))
        (pin (num 8) (name VSS) (type power_in))
        (pin (num 9) (name ~) (type input))
        (pin (num 10) (name ~) (type output))
        (pin (num 11) (name ~) (type input))
        (pin (num 12) (name ~) (type output))
        (pin (num 14) (name ~) (type input))
        (pin (num 15) (name ~) (type output))))
    (libpart (lib CPE-164) (part CPE-164)
      (fields
        (field (name Reference) LS)
        (field (name Value) CPE-164)
        (field (name Footprint) CUI_CPE-164)
        (field (name Datasheet) Good)
        (field (name Field4) CUI)
        (field (name Field5) CPE-164)
        (field (name Field6) "1.32 USD")
        (field (name Field7) "13.7 mm, 20 V, 80 dB, 4.0 kHz, Through Hole, Sealed, Piezo Audio Transducer Buzzer")
        (field (name Field8) CUI))
      (pins
        (pin (num N) (name N) (type passive))
        (pin (num P) (name P) (type passive))))
    (libpart (lib Connector_Generic) (part Conn_02x05_Odd_Even)
      (description "Generic connector, double row, 02x05, odd/even pin numbering scheme (row 1 odd numbers, row 2 even numbers), script generated (kicad-library-utils/schlib/autogen/connector/)")
      (docs ~)
      (footprints
        (fp Connector*:*_2x??_*))
      (fields
        (field (name Reference) J)
        (field (name Value) Conn_02x05_Odd_Even))
      (pins
        (pin (num 1) (name Pin_1) (type passive))
        (pin (num 2) (name Pin_2) (type passive))
        (pin (num 3) (name Pin_3) (type passive))
        (pin (num 4) (name Pin_4) (type passive))
        (pin (num 5) (name Pin_5) (type passive))
        (pin (num 6) (name Pin_6) (type passive))
        (pin (num 7) (name Pin_7) (type passive))
        (pin (num 8) (name Pin_8) (type passive))
        (pin (num 9) (name Pin_9) (type passive))
        (pin (num 10) (name Pin_10) (type passive))))
    (libpart (lib Device) (part Q_NPN_BEC)
      (description "Transistor NPN (general)")
      (docs ~)
      (fields
        (field (name Reference) Q)
        (field (name Value) Q_NPN_BEC))
      (pins
        (pin (num 1) (name B) (type input))
        (pin (num 2) (name E) (type passive))
        (pin (num 3) (name C) (type passive))))
    (libpart (lib Device) (part R_US)
      (description "Resistor US symbol")
      (docs ~)
      (footprints
        (fp R_*))
      (fields
        (field (name Reference) R)
        (field (name Value) R_US))
      (pins
        (pin (num 1) (name ~) (type passive))
        (pin (num 2) (name ~) (type passive))))
    (libpart (lib Device) (part Rotary_Encoder_Switch)
      (description "Rotary encoder, dual channel, incremental quadrate outputs, with switch")
      (docs ~)
      (footprints
        (fp RotaryEncoder*Switch*))
      (fields
        (field (name Reference) SW)
        (field (name Value) Rotary_Encoder_Switch))
      (pins
        (pin (num A) (name A) (type passive))
        (pin (num B) (name B) (type passive))
        (pin (num C) (name C) (type passive))
        (pin (num S1) (name S1) (type passive))
        (pin (num S2) (name S2) (type passive))))
    (libpart (lib GLCD-controler-SchDoc-rescue) (part Cap_Semi)
      (fields
        (field (name Reference) C)
        (field (name Value) Cap_Semi))
      (pins
        (pin (num 1) (name 1) (type passive))
        (pin (num 2) (name 2) (type passive))))
    (libpart (lib GLCD-controler-SchDoc-rescue) (part LCD_KXM1264M-3)
      (fields
        (field (name Reference) GLCD)
        (field (name Value) LCD_KXM1264M-3))
      (pins
        (pin (num 1) (name GND) (type passive))
        (pin (num 2) (name +5V) (type passive))
        (pin (num 4) (name "RS(CS)") (type passive))
        (pin (num 5) (name "RW(SID)") (type passive))
        (pin (num 6) (name "E(SCLK)") (type passive))
        (pin (num 7) (name DB0) (type passive))
        (pin (num 8) (name DB1) (type passive))
        (pin (num 9) (name DB2) (type passive))
        (pin (num 10) (name DB3) (type passive))
        (pin (num 11) (name DB4) (type passive))
        (pin (num 12) (name DB5) (type passive))
        (pin (num 13) (name DB6) (type passive))
        (pin (num 14) (name DB7) (type passive))
        (pin (num 15) (name P/~S) (type passive))
        (pin (num 17) (name Rst) (type passive))
        (pin (num 19) (name A+) (type passive))
        (pin (num 20) (name K-) (type passive))))
    (libpart (lib Switch) (part SW_Push)
      (description "Push button switch, generic, two pins")
      (fields
        (field (name Reference) SW)
        (field (name Value) SW_Push))
      (pins
        (pin (num 1) (name 1) (type passive))
        (pin (num 2) (name 2) (type passive)))))
  (libraries
    (library (logical 2041021-4)
      (uri e:\Users\salfter\Downloads\reprapdiscount-full-graphic-lcd-controller/libs/2041021-4.lib))
    (library (logical 4xxx)
      (uri "C:\\Program Files\\KiCad\\share\\kicad\\library/4xxx.lib"))
    (library (logical CPE-164)
      (uri e:\Users\salfter\Downloads\reprapdiscount-full-graphic-lcd-controller/libs/CPE-164.lib))
    (library (logical Connector_Generic)
      (uri "C:\\Program Files\\KiCad\\share\\kicad\\library/Connector_Generic.lib"))
    (library (logical Device)
      (uri "C:\\Program Files\\KiCad\\share\\kicad\\library/Device.lib"))
    (library (logical GLCD-controler-SchDoc-rescue)
      (uri e:\Users\salfter\Downloads\reprapdiscount-full-graphic-lcd-controller/libs/conversion.lib))
    (library (logical Switch)
      (uri "C:\\Program Files\\KiCad\\share\\kicad\\library/Switch.lib")))
  (nets
    (net (code 1) (name KILL)
      (node (ref EXP2) (pin 10)))
    (net (code 2) (name "Net-(SD1-Pad9)")
      (node (ref SD1) (pin 9)))
    (net (code 3) (name "Net-(SD1-PadCARD)")
      (node (ref SD1) (pin CARD)))
    (net (code 4) (name 3V3)
      (node (ref C2) (pin 2))
      (node (ref U2) (pin 3))
      (node (ref C4) (pin 2))
      (node (ref C3) (pin 2))
      (node (ref U1) (pin 1))
      (node (ref SD1) (pin 4)))
    (net (code 5) (name "PB1_(SCK)")
      (node (ref EXP2) (pin 2))
      (node (ref U1) (pin 9)))
    (net (code 6) (name "Net-(GLCD1-Pad19)")
      (node (ref GLCD1) (pin 19))
      (node (ref RBL1) (pin 2)))
    (net (code 7) (name "Net-(PZ1-PadN)")
      (node (ref Q1) (pin 3))
      (node (ref PZ1) (pin N)))
    (net (code 8) (name "Net-(U1-Pad2)")
      (node (ref U1) (pin 2)))
    (net (code 9) (name "Net-(U1-Pad4)")
      (node (ref U1) (pin 4)))
    (net (code 10) (name "Net-(U1-Pad6)")
      (node (ref U1) (pin 6)))
    (net (code 11) (name "Net-(SD1-Pad5)")
      (node (ref U1) (pin 10))
      (node (ref SD1) (pin 5)))
    (net (code 12) (name GND)
      (node (ref GLCD1) (pin 15))
      (node (ref C2) (pin 1))
      (node (ref SD1) (pin 6))
      (node (ref Q1) (pin 2))
      (node (ref EXP2) (pin 9))
      (node (ref U2) (pin 2))
      (node (ref U2) (pin 4))
      (node (ref EXP1) (pin 9))
      (node (ref C1) (pin 1))
      (node (ref U1) (pin 7))
      (node (ref U1) (pin 3))
      (node (ref SD1) (pin 3))
      (node (ref SD1) (pin G4))
      (node (ref SD1) (pin G3))
      (node (ref SD1) (pin G2))
      (node (ref SD1) (pin G1))
      (node (ref U1) (pin 5))
      (node (ref PB1) (pin 2))
      (node (ref EN1) (pin C))
      (node (ref EN1) (pin S2))
      (node (ref GLCD1) (pin 1))
      (node (ref U1) (pin 8))
      (node (ref GLCD1) (pin 20))
      (node (ref C3) (pin 1))
      (node (ref C4) (pin 1)))
    (net (code 13) (name "PB3_(MISO)")
      (node (ref EXP2) (pin 1))
      (node (ref SD1) (pin 7)))
    (net (code 14) (name "Net-(SD1-Pad2)")
      (node (ref U1) (pin 12))
      (node (ref SD1) (pin 2)))
    (net (code 15) (name "Net-(SD1-Pad1)")
      (node (ref U1) (pin 15))
      (node (ref SD1) (pin 1)))
    (net (code 16) (name VCC)
      (node (ref RBL1) (pin 1))
      (node (ref GLCD1) (pin 2))
      (node (ref GLCD1) (pin 17))
      (node (ref U2) (pin 1))
      (node (ref C1) (pin 2))
      (node (ref EXP1) (pin 10))
      (node (ref PZ1) (pin P)))
    (net (code 17) (name BTN_EN2)
      (node (ref EN1) (pin B))
      (node (ref EXP2) (pin 3)))
    (net (code 18) (name SD_CSEL)
      (node (ref U1) (pin 14))
      (node (ref EXP2) (pin 4)))
    (net (code 19) (name BTN_EN1)
      (node (ref EN1) (pin A))
      (node (ref EXP2) (pin 5)))
    (net (code 20) (name "PB2_(MOSI)")
      (node (ref EXP2) (pin 6))
      (node (ref U1) (pin 11)))
    (net (code 21) (name SD_DET)
      (node (ref SD1) (pin WRITE))
      (node (ref EXP2) (pin 7)))
    (net (code 22) (name RESET)
      (node (ref EXP2) (pin 8))
      (node (ref PB1) (pin 1)))
    (net (code 23) (name "Net-(SD1-Pad8)")
      (node (ref SD1) (pin 8)))
    (net (code 24) (name "Net-(GLCD1-Pad13)")
      (node (ref GLCD1) (pin 13)))
    (net (code 25) (name "Net-(GLCD1-Pad11)")
      (node (ref GLCD1) (pin 11)))
    (net (code 26) (name "Net-(GLCD1-Pad12)")
      (node (ref GLCD1) (pin 12)))
    (net (code 27) (name "Net-(GLCD1-Pad14)")
      (node (ref GLCD1) (pin 14)))
    (net (code 28) (name "Net-(GLCD1-Pad7)")
      (node (ref GLCD1) (pin 7)))
    (net (code 29) (name "Net-(GLCD1-Pad9)")
      (node (ref GLCD1) (pin 9)))
    (net (code 30) (name "Net-(GLCD1-Pad10)")
      (node (ref GLCD1) (pin 10)))
    (net (code 31) (name Beeper)
      (node (ref EXP1) (pin 1))
      (node (ref R1) (pin 1)))
    (net (code 32) (name "Net-(GLCD1-Pad8)")
      (node (ref GLCD1) (pin 8)))
    (net (code 33) (name "Net-(Q1-Pad1)")
      (node (ref R1) (pin 2))
      (node (ref Q1) (pin 1)))
    (net (code 34) (name BTN_ENC)
      (node (ref EN1) (pin S1))
      (node (ref EXP1) (pin 2)))
    (net (code 35) (name LCDE)
      (node (ref GLCD1) (pin 5))
      (node (ref EXP1) (pin 3)))
    (net (code 36) (name LCDRS)
      (node (ref GLCD1) (pin 4))
      (node (ref EXP1) (pin 4)))
    (net (code 37) (name LCD4)
      (node (ref EXP1) (pin 5))
      (node (ref GLCD1) (pin 6)))
    (net (code 38) (name LCD5)
      (node (ref EXP1) (pin 6)))
    (net (code 39) (name LCD6)
      (node (ref EXP1) (pin 7)))
    (net (code 40) (name LCD7)
      (node (ref EXP1) (pin 8)))))