(module CPE-164:CUI_CPE-164 (layer F.Cu) (tedit 5B75EA1D)
  (fp_text reference PZ1 (at 0 -0.127) (layer F.SilkS)
    (effects (font (size 1.005 1.005) (thickness 0.05)))
  )
  (fp_text value CPE-164 (at -0.125465 8.56653) (layer F.SilkS) hide
    (effects (font (size 1.00369 1.00369) (thickness 0.05)))
  )
  (fp_text user - (at 5.715 -0.127) (layer F.SilkS)
    (effects (font (size 1 1) (thickness 0.05)))
  )
  (fp_text user + (at -5.715 -0.127) (layer F.SilkS)
    (effects (font (size 1 1) (thickness 0.05)))
  )
  (fp_circle (center 0 0) (end 7.1 0) (layer Eco1.User) (width 0.05))
  (fp_circle (center 0 0) (end 6.85 0) (layer Dwgs.User) (width 0.127))
  (fp_circle (center 0 0) (end 6.85 0) (layer F.SilkS) (width 0.127))
  (pad N thru_hole circle (at 3.81 0) (size 1.508 1.508) (drill 1) (layers *.Cu *.Mask))
  (pad P thru_hole circle (at -3.81 0) (size 1.508 1.508) (drill 1) (layers *.Cu *.Mask))
  (model ${KIPRJMOD}/models/CUI_CPE-164.wrl
    (at (xyz 0 0 0))
    (scale (xyz 0.3937 0.3937 0.3937))
    (rotate (xyz -90 0 90))
  )
)
